<?xml version="1.0" encoding="UTF-8" standalone="no"?>
<!-- Created with Inkscape (http://www.inkscape.org/) -->

<svg
   xmlns:dc="http://purl.org/dc/elements/1.1/"
   xmlns:cc="http://creativecommons.org/ns#"
   xmlns:rdf="http://www.w3.org/1999/02/22-rdf-syntax-ns#"
   xmlns:svg="http://www.w3.org/2000/svg"
   xmlns="http://www.w3.org/2000/svg"
   xmlns:xlink="http://www.w3.org/1999/xlink"
   xmlns:sodipodi="http://sodipodi.sourceforge.net/DTD/sodipodi-0.dtd"
   xmlns:inkscape="http://www.inkscape.org/namespaces/inkscape"
   id="svg3390"
   version="1.1"
   inkscape:version="0.91 r13725"
   width="16"
   height="16"
   viewBox="0 0 16 16"
   sodipodi:docname="drupal-donation.svg"
   inkscape:export-filename="/Users/adrian-morelos/Sites/donations.org/web/modules/custom/donations/icons/bebebe/drupal-donations.png"
   inkscape:export-xdpi="90"
   inkscape:export-ydpi="90">
  <metadata
     id="metadata3396">
    <rdf:RDF>
      <cc:Work
         rdf:about="">
        <dc:format>image/svg+xml</dc:format>
        <dc:type
           rdf:resource="http://purl.org/dc/dcmitype/StillImage" />
        <dc:title></dc:title>
      </cc:Work>
    </rdf:RDF>
  </metadata>
  <defs
     id="defs3394">
    <style
       id="style4107">.cls-1{fill:#ff7d00;}.cls-2{fill:#fff;}</style>
  </defs>
  <sodipodi:namedview
     pagecolor="#ffffff"
     bordercolor="#666666"
     borderopacity="1"
     objecttolerance="10"
     gridtolerance="10"
     guidetolerance="10"
     inkscape:pageopacity="0"
     inkscape:pageshadow="2"
     inkscape:window-width="1757"
     inkscape:window-height="1005"
     id="namedview3392"
     showgrid="false"
     inkscape:zoom="43.945377"
     inkscape:cx="8.7504463"
     inkscape:cy="7.7781745"
     inkscape:window-x="43"
     inkscape:window-y="2"
     inkscape:window-maximized="0"
     inkscape:current-layer="g4419" />
  <rect
     style="fill:#0000ff;fill-rule:evenodd;stroke:#000000;stroke-width:1px;stroke-linecap:butt;stroke-linejoin:miter;stroke-opacity:1"
     id="rect3400"
     width="216.94328"
     height="79.312599"
     x="482.50641"
     y="59.016464" />
  <image
     width="180"
     height="52"
     preserveAspectRatio="none"
     xlink:href="data:image/png;base64,iVBORw0KGgoAAAANSUhEUgAAALQAAAA0CAYAAAAjfRLqAAAAGXRFWHRTb2Z0d2FyZQBBZG9iZSBJ bWFnZVJlYWR5ccllPAAAAyhpVFh0WE1MOmNvbS5hZG9iZS54bXAAAAAAADw/eHBhY2tldCBiZWdp bj0i77u/IiBpZD0iVzVNME1wQ2VoaUh6cmVTek5UY3prYzlkIj8+IDx4OnhtcG1ldGEgeG1sbnM6 eD0iYWRvYmU6bnM6bWV0YS8iIHg6eG1wdGs9IkFkb2JlIFhNUCBDb3JlIDUuNS1jMDIxIDc5LjE1 NTc3MiwgMjAxNC8wMS8xMy0xOTo0NDowMCAgICAgICAgIj4gPHJkZjpSREYgeG1sbnM6cmRmPSJo dHRwOi8vd3d3LnczLm9yZy8xOTk5LzAyLzIyLXJkZi1zeW50YXgtbnMjIj4gPHJkZjpEZXNjcmlw dGlvbiByZGY6YWJvdXQ9IiIgeG1sbnM6eG1wPSJodHRwOi8vbnMuYWRvYmUuY29tL3hhcC8xLjAv IiB4bWxuczp4bXBNTT0iaHR0cDovL25zLmFkb2JlLmNvbS94YXAvMS4wL21tLyIgeG1sbnM6c3RS ZWY9Imh0dHA6Ly9ucy5hZG9iZS5jb20veGFwLzEuMC9zVHlwZS9SZXNvdXJjZVJlZiMiIHhtcDpD cmVhdG9yVG9vbD0iQWRvYmUgUGhvdG9zaG9wIENDIDIwMTQgKE1hY2ludG9zaCkiIHhtcE1NOklu c3RhbmNlSUQ9InhtcC5paWQ6RTY2RTMxOEU2MkMwMTFFNEE3QTdBMzc3RTlFMDBFOTQiIHhtcE1N OkRvY3VtZW50SUQ9InhtcC5kaWQ6RTY2RTMxOEY2MkMwMTFFNEE3QTdBMzc3RTlFMDBFOTQiPiA8 eG1wTU06RGVyaXZlZEZyb20gc3RSZWY6aW5zdGFuY2VJRD0ieG1wLmlpZDpGRDJEOTI3RjYyOUMx MUU0QTdBN0EzNzdFOUUwMEU5NCIgc3RSZWY6ZG9jdW1lbnRJRD0ieG1wLmRpZDpGRDJEOTI4MDYy OUMxMUU0QTdBN0EzNzdFOUUwMEU5NCIvPiA8L3JkZjpEZXNjcmlwdGlvbj4gPC9yZGY6UkRGPiA8 L3g6eG1wbWV0YT4gPD94cGFja2V0IGVuZD0iciI/Pu4Tjk4AABnVSURBVHja7F0JdFRF1r6ddHcW 0llIAiELBAKyRQQEgVEBRUH9ZQREEXcdZxi3MzNH/N1FBpHxKOqov+OoLKIo47jghsiiKPsqsiWE PSGQfeu9+73u/97X9ZJK5fUKQcG+59zz0rV1ddVXt+69desFvF4vnAl64CebHnk2RClK7USE5Zgz +H2DkB9DUF8WHfootRedSUBPRtYhf4Sg7hYd+iidtYBGAA/Dx4PsYwbyD5g2KDr8UTrdpCO9Q6fT tReQacH8GflF5AQhW0J+H3nO64MSS6JTEaXToUO3G6ARzOPxMQv5gmD9QP6Y9GsE9qHotETpVwVo BHJvfLyGfGU49TxerwN5NvLzbw0xuaPTE6VfHNAI5hvwsQC5Q4ggbmGP7yl7vRvxOem9EWkV0SmK 0i8GaATzvfh4I2QQe1rALCtPj/K3hIx9OiZ7vFd8MrLTweg0RemMAxrBPJHpwTEa3wIeArKHAAsc gFuDmJPQrKz3CKYPWz4mpzo6VVE6Y4BmPuWdyKmtQNzM0BbAHvVvLg9BLLGn7FUluWcllh239up8 b3S6ohQKoPXqh1Wr19yNj+uRSSK+dMWY0btCbOdlBcxeUYVoBiUDsABiFcAciGXl2VIW869Eyf0H bP+d6HRFKRRSJPTq7354XAbd7JUxmXtyvQ5TobepE+YNQVDvCyidd1gvQvBtZnovAzEvhX3AbJa4 nBT2AZ8HcQvwecBjuxX4OX/fpL7OEFcpGaQGjSwb7kSuENsgn3mcRpYD23AEqWsQjGIJ61g0yiXi w8gl2bGck8tP9TtpOl1DiL9D7IsX6zaGMXYhj9mvRUKrOu9Dbxp7/ZyVU1C4M71vtz265BpM24JS +3Xk8/w14JTlaQ5JBrcsAz0dkqSwHRnzwKn8zdLdbrApT0kp60t3K2UdrJxTrUtpWN/ly8vC5w1h /K7FyPUa7MQfbEbehDwLuWuANub4acOO9XCdeQ8gv4icrlH3f4Q6X/n5jjeEcvcK+fX+GL/XhbwB eUqQsXhUqNuAdQrCGLubzzYJrQI6zWlI7NDVqIP+CTEwV98rb4Gp0FZlTL4V84oR1G8gt1K079rc YEBgTnbKPkA2PyUGbhXADMQ8YO0KkN1Kml1Nc7cCsfJ0Kk9lQdx4mn5vEjIdwz+JfBAn91nk2DDb oPI9SQiQ7RBkYbQXkRQdgbwEv/+VAOW0xu36c1nlUAG9ZpztkHF+lbPqg1qX5ERVYKU9LvM1fUFK z4Ieu3HbIekxrtX+LUkDEcTJLdLWB1hbKwC3gFiUxkoZNw9cXz2nKqGZlPZJffmy9He3xLQDKJ4A n988UspF/vcvPId/QVBP0th+6YCrUKP8pHMZ0KpR+Mf+XvOy/ubtXVGXhq1JXcu/8aSlT0mT4uPi jANSUpKLGxoa56KUpoi5OuJV7rrCfV5TK7dba13Y06wPy54WvZj0Zq+X6c0sXf0st/J+eJTPXl8b SZjeHb83kqPx9SSNGYDpGL6/kH8bfsf3uGgDAftn5skxIY8EX4CVSldh/Xysf7Sd5+pDZBfbZcYL +vcjyJ8K5Sf6aWcY7SrY39JzFtBo/B1CsPbDP8+PBW/P4ZZjfxsOx3KyO+bswDkcnJmR7rLb7Tnx 8fEXS5KUKElyUprkSiXd2eVpDeJW4Oa8Fgpwm11yLYBubThyIBbqYl52hIB+BydvISe5rqKtGjmF KzMT0xdhOdlPG0sx7xlWvxPrRxKXPxi5vQF9n2oMYh9IsPyXyxuKacmY38Sl8XbHWuRLwBe+q0rp V85lCU2glpkUIv4YAT6jprLqobRkk9doNPYv6NG9EQesj1qelMjbyUpCAFokgCbJC2aFPdDk9j0b 6W+XBxrcxDKyDhroM7ILF4Pq5VAB7eVBzP1NLsHb0+HO21evIYPmAPZ1fcRuHZ1uOU7+nfjnZ1xy HtOtN4RQvwrrlzAQq5R4huftS7FbyLTgmxjguwv9+xqZDNh+nB59bgNag95yud1Pud3ufQaDoT9O ZEetQgkxOkjAzS/TqONspuDkxIXQpAJdAbkMdS5ZedYrLEGjkz5LUO+UYFiK96aYGM/dJPVxsb2K oP7LKfzuz5mU5S3+S0MBNIKF3HniBYXjZ3jeEjTS3AH05PXst6qAvhh/RzbO6YnfDKARMCcRON/U 1NT26NIlq828flDuXFJkkaZOyY6DQpOvmc31LgWkg1KMkBHns+FIBYnV6UA8i4zDhZAZF6twiKRI QYfD8fOhw0fvx75Nxz5GFJWHE4nz6d0iADovQJU+WH4CPpPZxsS760gqbjyDvlYa2MeEZDtyqR91 g3zgW5gB+0dOok+AEGJvzlYvh1/9s76hkVa16MjXje9svCQXZRWB2S77TqZ7JMbCjgYnpKK0JglM qQ7Me2ZPrfIkY09il3I31tg5f7YvjfTxoK4JgyGBbQMJp/jbqzRcev5oClNR3kUeI+S9wh+ItCOt RTCTOliJ/L9C3nLsg5sBPpepTyqtZocjq8AXe35Ou++CAXoZDlClxWIVo97cJr0ub1p+B7Ci3nz3 9hqYd9SsSNtHzvPZWtO2VSGQayBJHwMzC9MhPlYHf/2pAu7ZXA5uBO6IDB8e5+yuhEnfHwIzqh7G GJ8cX3G8Ea74ah9U2FoJ4GLliyWJJE4DSuemU/ztnYTPlgjaoBs3s87QXBUyL02GkE5gnRnAu/Et 25XosGw7lz6aGbi/HUCzLX1RZVV1N40tTqFSuxv2NzngxyobMEELlQ4ZdtXbYH2NVTEOiRoRsNuq LbAL06odkm9VILDXnWiEg3VWKLW0nLAuKamCklozlDTY2khUp8MpqeA+RRoqfD4WQRtvIFCk06Tu RRKARcfwt2AffubSxMOUGQjco8T4d19h7n//WzIKVZqHeuvDsiwfjI2N7cnSSJe0l9ulir4mY/d5 QzpBrySDopitrbbBpZmJ8OGIbEgxxoIJJfSaCguMzkqCT0d2Awvq2NmJBvjhZBOM6pIMSy4vgFKz E/qnJcB6TLuoswn+Pbon7Kw2w9DOybCjygwDM00WFN7k/wWb3R6Pj59OUQ+9ljlqQHBt+aP/MFcf eUeu49JfxrZGkE4ugIyndD9t5gqfa4J0ew+y6lasY3rxm7z/m0nci4V6nQO0Se6/cyrwK+jpG0rp /fhYV1dXL27JXz+2q3r49jqHNCg1TlEtHkaVYsraY/Dl8SbonRwHWfF6eGlvJUxFleKt4irISjBA T0z/6FAtTF1RDDO2HAOTIRb6d0yEH8sbYOqy3TBtVREYEL0E5qJaK9z+5c6V+PEK1Yq32+00aftP AcyjoO3pIEnnrQGqFSNwluJzOgcqYLrqBLGsqCrgd44X+kA+4ZFCuWC/6VLsw0DGlyM/qnGYMwkA wokFHoN96fhbk9BE82tr697KzMwg6RPP0q5dNKzLq2jsOdV2xmV1gB9PNMD5qfEtilrnJFhkQIBm tAR9DcG/O6P0viTL1JzWF0GdhwtgTG5ai9vBFAePD++xEP+kwxAlCszpdJHLpSiM33gzTtpA5iWh VycM0SgzI8ChCu8dofiP+Zy3gGg2pn2pqh4EMvy8A1r7gT+jMvgk/3U+WwQ88MhDseM0zKcYxEXS t1xIG8/1jeaNdqtFQcZOix7D32r/tQE6pAD/VavXEBorenTP35+QEH8hl0WTqH+7pKZ0SHpi10Hp ieCUPRAXGwPzUCLnJRlhbG5qc9pXR2qhzuGG2/tmNadtwgWw7ng9TL+oe3Naca0F3t9dBs+O7qtu 4fFMslXsK9pPgO6HO0eRHwm8VFALghGdEN4htEGHDryfeyZ3UkjBSOpRukp/wPz5XH1agN+E0QfS gz8Q+iDq1GmBwkaZpK2CloMAEjQdsY5NKCfGl3+FZcZHMHZpoYaxnkGXZmgvmkHwWEmHrKquztSQ 8N8+vbVsxAPrjpykkz0C5IFGOzy96Qg8uKYErGgMUlo9GoJ//a4YnvixBMotDiWNjMIHVuyBuZsO wo6KRiWNaPq3u2DetsNLPV7vR9yOAJIkVbMt/3TcNaR2KEz07rAkgC8GYr6Q/AyLoVbLLAdfNF4o ht4cEcwR0kRofaq1VgQz7/XgaCz2PeW3pnIoxqHFYr0HQVYeo9PlcOnjTt4yaJpd8lTH6nRdbJIH eqUkwJxh3SAr0QgdUEfGPEhDdeL1y3tDjc0JOUnxzdL4X2MLYUNZLQzOSgEnlotDXfzt8YMspjjD ZvyeObyERnWDtrjDkR6oMD2cLi2sBF+MR6S6+HNsIahSmg5l7kOey4H6JQQKGa/PIv9Oo43dTNX5 7DTNpahurPCzII9jv/ZCS5AWBTldzYzes57CulOIqseeLl2yHB3TUi/UyrdJ8rIrP9nZcfHV/Ybn J/sE1paTDfCn5XtgwTXnw6DOPkFQgirFlE+2wvNj+sHYAp8RXoFS+/rF62D22PN3je7eeQBrknzN Y5H/RACqqandXllVXY6Avi7AtuPvxoqMv9Mc4tYl3lhpc1MFy5gEiah5M4WVpTgL+k2kFtA2XYRl jwTpg3hjpVHwpojlkwUj36oetoQwRsrvCzB2WhSwP7+UyqEPs878muqaWQhoGTSCNhL1sZ/fW9hl gUvybFINjw1ldVDZaIWt5fXNgN5Z0QCVDWZYd7S6GdDljbZGi8MxEcFME6mGQh5hXoMY5rKjBr4L ohJYT3mV+4wde5Ay5jDao5iJE2H2oSHM8k1hlLW219idbRKadOjyXj17FBmNxgFc1g7m16Xj4+/J HYSqSZFD8mQlGmLT1pbWeC7tmhFDUrgRjcLeGSbYWFoDI7pmUPC+yynJh1LijWQBbmReCFr5FCg0 mms7ueTAIYfb7b4fJfR8iFKUTlVCI5CqEdRfVFfXFubkdOGzaDuezCx7inU4hPrvKAQz+Yw3IJiT 0WBsnLu26L5am8Pz5oRh/0QwU547Xh87EpmkMB1sjOD8qV8zvkLdQhHMHZjrKygVdMvvwHTXHKaD kwdg66FjR8tCrG9i/clluxFF1G3G+nVB6pFOmi0kn8B6Lo2yJCD4S6w2LFelUS5fSKrCcjaNcrS7 8aqKC8udEMp0gtDCXWuwroXVIVUp2U85KlOLZUNWP7A9Or4fzsbJw8Z2i9bYYlnqayhH9DQeVfoI FsK8xqamZdnZWbUo2dVTMALOh5waQq6ti5jPVRkINBhTXrh6UBbTi1Vns4HpxzTo3bnvmM6MrGZd XZZl8qeex4y6QINF7VB8xfW8h4TLJ3XoORy8L/3UP48ZctdB61shRB7MJw/GU1jfn9+Y/LabhTSK 0HtPoywt4t6CITdO6E8KU714ov49pdHee8yvzPu3xbCFt0J0zd2FvJD9/bTgxmwDfuwnXTh4HMel IcDcXMQM6sug7aGejPkkEGcIY0s2VCiGM4UET4jknt63KNqPm82WI9zKIOnDH/ESUOm28+tCXfIC vC0YHuQteBJaR7v9jknmNAbmA6Vlx0mSbcNdoi7AgE1lgL9FC8yMSDJ8gWXfRTYI9clHu4d5DIwa dWm8rqF+YNkn/bSvddR9o0ZfzxfATJShUTczBI+GCvyxIbTXHkTfQ/dO17KdTeybDvnvbKGPAe0T 6li2GLdi2Yci7UjYgEZA0RaxsKq6pofq+jt6rKxOkqRwTu+oDXqlQBXq2mUej+cQ1t+LKsUup9O1 w253bLVarZvNZvPm8vKTJcX7D/Sy2ez7QPsWszpoJJEXBwCySP2AO8bG+iRF3wnRyiejYxbWedTP 5Io0lgGOJ63Lqp1CbK83WxA8/V5jESZiuXg4c0QRgY9rpM/ys6P4w+R5Z8IPzdOPTqfzSQTjcdSV c3F2XftLDvZNTUnZrzfobQhQvUf2xEqyHOfxyPH4OY5Ylj0munHCgtRNjNvo9kwtsTLpTzdLHsCF tDKITjYf2sYx0BZGBwnkkaDrY7chq7cVHsStzcPqk0HwL42maZdZzoA/ii0oXgjMpm0S2/k5CCiN TLJ/yKVNDlG6+wtuouPz3dzniQF2jPIAc/k8aEcvrgukdiKT6kbjdjMbW5Vod3yMmxuKd3lCqE87 Oh2arWdjS2VuYvZEg0Z5ntaDdkBV6akA+vHkZNNhBHMPisKzWK3khXiyobFxMGvTzsDIA5OejcHy ELiOCPrzkGC00LHvDaKejINLUoKC4/MxbxOX9aRgKJH/9kYss5RLexPr0w2PZZx6ROCeIUhbf9v8 ZBXQ2E4f0H7FQALmJeD32oOoHKoaM4u1R/25OoA6EAjQy/H71oQ53uuwzkL23fOE9vNI7cB8M6fv tzKQaaPHfH5Hfxvr0M31l5lxGCjy8KD63adFQq9avWYSGoOjc7K7KCui7Hg5HUCcZKBcG6R6CrS+ ba3VvphE4FqNQA8UA32LuMVpGX2Y5mSqgo4DOYFyikb9pRr1SUf8G7MDVLpWmEB/EvUaAh7zHAR6 E1Q6tL6j6A/QhbQwsL1ipnv6Uy0y21nNoPd4SwKWZM6jIt7wuUsAszq2tWQ8s/mImPRhgpn0yxc7 ZWbsjImJGehyu4tQ7801GhW18+/tMVoej9eI+nUsfvdIBPVGDXWD7gXmCfp5wLtygouprwBCmoxX A1RfyLbpjpwBTIbmSj8AqmNl4xnwlgi2QD3n9VFVluMBJL6ZU9VuYFKaXyBNwm6VHmSIH8UxvFNI mx5ESvJ0uYCjCs6lOEpQAw9g3oogc+MJ8n2XYH9FCb1UFUDhSmg69Oient6xXlEMDYa+vXoWtLul cay07KjFYiUpqnUZVfT5HsYfVx9G82KgfQnWbwww4BIO6A7OPy72QQT0Sm4HuI65DQsFPf22AAAW AblMaO8F8IXX8vk3hQHocRppz0DgCwf34PeOZm2L/3rkvwHmZvtpgEMBtL7cTHSUQB0JoJV/E9HU ZD6ckBCvbA2SJHdCKZ3jdPnCBuJQWhsMhhN6fWxleJLY08Htlno6nM4YCpzE+rRgzHq9/qDT4ewF /l8VIF6WlcP8TTER1Jc0jD5/gHyfA+BVzJhSiS69Hg4C4E4agFHbu5CBV9X/aSF+JwC6PVSOi6Ht zRgiOhT6R4C58bS38Av3pPAIvT7gePmJGeq253K54PCRoxCf6LOT7FYz9Oienx0XF5cdTtt0bHnk yBGIMfhUQafdBp07ZZhSU1MHMW+FPzVCXDg96HRJ6yTND4knc93ptE/rZE9QU0RDRwuQbiahG5nt kAqtX0HwkcYCSg/ittuGTO/uVkMP5vBbr4ZkDQZoGj9HkAUb6jiOEk4mxbHtfxowa9X4jQ0RG4UI ajocoffckR90V3FxMUiypxnQDocDioqKYOBA5aLDUCy/LYheTg71o2VlZbknT56EnK6+A0N6YxK1 M3jwYMDFsQ7b8QfQ/cCFmDKddipzLYVCe5nnRZUmHZjXYokfFyG9kKab1lbKDBoekPVkiGL6J9AS d83f8fuPhtGUGQTg9cxbogKaf2nKEmgbVBVM5bgpAi+HnbneTNwOlwltj8d3Cp8vwLG4QHBzhksf Y/07Q91uw6ErbTYbmM1miI+Ph7q6OqitrSHwgdVqBYtFCQMYG0I7JO1yKysrlboupxNKjx0DA6ou JLWrqpRFfmUAndYBbSPwnsOBy/MDyKHIa1iMgFpfDHp/EfOzNeqmaPirKb6jggOPTkNyaAXwU73D DKCBJDL/2YN1mgR/tkrVbDdoCBPQkdB92A/abV7j0uh3v6ABaDHK8G117DXG90Z2hB4xnQqg01B3 9jUSEwMlKKmL9u5T/lb2Wl9eWijtqOVjY2OhqroKNqxbC/SuJYoClCQplEl5QUPv3IKDcxdyGnIs Mrm56GrVemZ9P8+Vf16oTwFNG7H8FApyotM2ZHqR+QaNbfMfAcCognWNan9w9IG4XYpt4HfqOW9K c1kE0zFo+9qyjzBd1lgg7QFo4NQdPuR0JPb5GsFjMVeoM5SNLbkx6STTiHwxAzLtWJM1vC7to0ML dKBDhw4K6KxWCwwa7LtLaTU3KWmUB6FdlVLeKJqUlETxzpCRngYTr5+k6OJ0qsjaORDE1bOGbev8 24BoK54Pba9LqfQA1vkU635Phyz4N50+3cPld4XgtzjIQ/F5EPWA+iezA4hbVZOB8wYEAmC6nwVC tIAtPJUW+2kvWKTa99g3rfTPsd8Tgox7JdaleJ1HhN1xOed+e4ONK293kLr0dYCmX8E2VmEbWo6A OzDvDj/1dKcC6C/0en1jXl5eSmlpqWIc0p4jyzLk5uaC0WiklftJCDr5CdSjV+Tn54/du3cv1NXU QAxKahkls8lkgsxMRaVcFEJ/7mQgvjjE/p8UjIv7mX47PsT65K24VfBpd/IHQCxHp5FaAU31AXTo 9ADt0QJ8RwNkZpxw/gJGe0poRT0j4QAtYbAXMBtmsarSYX+uZbtUXohtkiCM6PVqEascCETa/u5G QMt9+vSBjmlpkIbcu3dv6NatG63OaVgmVOf8n5OTkysHDBgAnTt3hpTkZGoDCgsLSdovwHY+Dyrm fSdwY9gAB7pz6GXb/UCss5urT0YOxUM8rWH1g+C5INXlMg1/dYY/6zsABdKhM4OU9Uf89yrH6e2F ZnYAI0ZVzmJx4WoZshWGCD5qLXIwFe4SrBPR/6c8FQlNoP4Upevo9PT0Z5BHcpLrGcz7Lkx34FBU L54tKCi4jrm4ith29X9hDC6t6odxMF8CX8zvKLYtG5kOu4npmof91JfZZLwJvuCfy1l9Gie6GEAB O6Sm+IuNoAXCv2dufYjgmylMKu9S4/NCfQXas9A60F8veEJ2htAG/10/CHn7NKS0ePROEXN7uLEl 6/5GFsdCY0ux0V2Yb5rCKNayuanR6MfMUDGga/v6hyhF6eyl/xdgAPdeCZVaopDCAAAAAElFTkSu QmCC "
     id="image3398"
     x="507"
     y="70" />
  <path
     style="fill:#000000"
     d=""
     id="path4229"
     inkscape:connector-curvature="0" />
  <image
     y="104.55847"
     x="307.60605"
     id="image3561"
     xlink:href="data:image/png;base64,iVBORw0KGgoAAAANSUhEUgAAAOEAAADhCAIAAACx0UUtAAAAA3NCSVQICAjb4U/gAAAZlElEQVR4 nO2df3AT153Av7vSSl7Zkm0Z20JGxDYEc24CF3DgWhgDITQQHEjaJJMMXHvtJNejvRImk5QGLv0j bdNm8mO4ZFquoddrr3Dt0KQhDj+Skk6NB/cKIekADRMTwC4CIclYFpbl9Wq1++6PbXQONsasdve9 J73PH5lAYu3z+uPve+/73vs+DiEEDAbB8LgbwGBcB+Yog3SYowzSYY4ySIc5yiAd5iiDdJijDNJh jjJIhznKIB3mKIN0mKMM0mGOMkiHOcogHeYog3SYowzSYY4ySMeJuwEFgjJmp7jA4WhHIcIcnRSp jJbKaJEh5UJKOTeo9I+ol0fU6IjWK6lnZHVYBRjXSAQeB8x0O+pFR32ps0zg6r1CyCtMER3BMsHr 4r0u1o9dH46dFRmXyFD2zIDcPZA51jfy4WA2IqsxFQGAj+PET3sl8tcJmJKGPv1HGEQIAGodXNDt mF/pusXvaqp0zax0B8tYyBgH5ujfUBCcG5CPRaUj0ZG98ZEeBXl4qHX8zb/rimiMnL6SBlEVNQjc PQFxQY27JSA2+d1WPJFGit3RpKx2nE8fOJ8+2Cf3KCjg4ETeKiMng6Sh0b4uqxMXTPUUeXwtUkfD KeXtnqG94eH2RAa7l9ci5+sav+vBhtLWUGnIK+BuFAaKy9GkrO47m9reneoayjYIHFjWiZtLTtZF Zc4NTd7VM7wVbgfuRtlHsTjaGU7vOj24MzqiT3qoUHMsuqyDCK0PlKyb5WsNleJukR0UuKNJWf1N 9+APTl2JqajWwVGq5lgkDenf0VPN5Q/NLi/sHFbBOhoZyv7oeGJbb5rqwDkxubC6qb70X+ZUFupo tQAd7U7IPz6RfDk83CAUTuCcmEQWRVW0MeR5Yr6/8EwtKEfDKeV7Ry/vjI4UUrc+efQBwCN1hWZq gTialNXnj/U/ey5dPLHzWkga6lHQlsbSb98+pTDGqYXg6I4TA5tOJoszdl4Lfaj6zC3lj86pxN2W fKHb0c5w+ptH+uMZze9kdo5DIotqXPwrC6uozlLR6mhSVjcfjhft0HPy5Aap3/tcNaVdP5WO7vl4 cN3Rfmbn5NG7/u23+++92Ye7LTcMZY4mZXVDR6z9slwvUBkS8HJK1h6qcb+6LEBXQKXJ0UPh9Fe6 +oCSRXYy0XcD7l5a2xIQcbdlslDz+7S1K760Iy7yrH/PC/3t3X4wurUrjrstk4WCOBoZyj548NJZ SWWTdxNJZNGCcuEXdwbI30JFuqOd4fSqzjhF0yMnz2U1ol9pDn3Kf2h5gPB+n+i+fseJgVWd8XqB p0XQRBY9N9+fyNLhqMhztQ5uye+jO04M4G7LRJDr6JOdsU0nkxTN3yUN1bj4lQ1lNS5eoiSUijxX L/CbTiZJHp6SaICCYO2+izsvSBQJqvOvs7y5f1JEvcD/7K/DD78Twd2Q8SFOgqSsLtsTPplSqJsh xVT0QJMPAFY3evWDzhThd3JHBjKL3wiPLWaBHbIcjQxlF715ISKrtAxAc0ga+nrIo8+Rg2XOr4c8 tHT3OUSei8hqy+vnk7KKuy2fgiBHwyll8d4LkoaoExQAehS08TZ/7o8bb/P3EBiRrofIc6mstuSt i0RpSoqj3Ql5dvsFoHMNKZFFT9zkGb2tOOQVNlIYSuETTee9EY4MZXG35W8Q4Wg4pcw7EKEoCTqW rQunXPU3m1uqqBuV6ug/hcV7LxASTfE7GhnKLtl3kV5BE1n0wt9XjF2tCZY5t91aQUuu9Cr0nwUh nT5mR5OyumL/RaCziwcASUMzRMe65opx/+ujcypniA4ae3wYNTbFPq7G6aiCoG1/hNJJkk5MRb+6 MzDB//CfS2oo7fHhE02X7QnjbQZOR+/ff5HGNFOOXkV79bbrnGpv8ru33VrRq2i2tcpc9IQU3vQ+ Nkef7IwdvaLQK2gii9ZMcV+rlx/No3Mq76xwUdrjA4DIcx39GYyLpXgc3XFi4MfhYepWknLoS/P/ /fngJP//nSumwphiuRThd3LbetO4tp5gcLQznKZrs8hYehS0+47ayVe897r4PcsDNGb1c+hbT45F JfsfbbcokaGsvt3O5ueayClZ61hac6N1ludUl7zxD1X0DkwBQN/IZ382ym5XHjx4KVfAm0ZOydqr cyuWGDqufu/Nvu/c7KVXU32/6Zffjdr8XFsd3doVPytRPJFPZNGWxtJ8Kn9sXjBlfaCE3oGpyHNH ryg2z5/sOytyKJxe2hFvdtPay0saWljp+tVdk50nTcDafRePXqFv82GOU7L23gr7TpjY5GhSVue9 EaY3gkoautUrvLm6zpRPUxAs2xOmNzes9wPHvzDdnnP6NkW1DR0xex5kBZKGgm7Ha3ebIygACBwc WF3ndVJzpOQq9F+tf/6DTQNTOxzd8/Fg+2WZ3pjhdfIHVteZe7ei18UfuqdO5Dl6Nf11XN7z8aAN z7K8r0/Kat1r5ylNNul7Cf50b8iiTk0fAgG1W2oSWXT6fst7fMvV2Xw4TmmySRe0a+00634GFW7H odV1QO0SlMjDv/2xz+qnWOtoZzi9MzpCY5DICWp1GY+QVzjcNg3o1FTkuZ9eHO4Mpy19irV9/dzX zqeyGnWO6rocbptm2yWI4ZSyZB+V+2j18frx+6db9wgL4+iOEwPxDK2CHlpdZ+ctnSGvQGmnL/Jc PKNZut3EqjialNW/ez1MXZo6JyiWeznojaaWTp6siqPPH+sXaZvK4xUU6I6m8MP3Llv04ZZ4FE4p z55L0xUMcmNQvDcbUTqFEnnu2XPpcEqx4sMtcfR7Ry83mJvythgsY9BrESxz0hhNGwTuhfcTVnyy +Y52J2S68k3Yu/ix0Njp63koK0Kp+Y7++ESSoqQ9gYLq0KhprcOSUGqyo5Gh7MvhYVqCKCFj0GtB 3dhU5LmXw+aHUpMd/dHxBC0jUb3S9oHPTyVhDHotgmXOA5+fGlMRLZoGHNx/mJ0rNdPRpKxu66Vj Oq/fqfXBquCNHkuynya/+4NVQUmjI5rqJ0hTGTPPw5jp6G+6B30cBYICQExFb91RS76gOk1+91t3 1NJS78THcb/+6IqJH2jmOlPjr3uBhjWSXkU70FpD3TWv+hUr5O9y1OP9uYfqzfpA077hQ+F0TKWg ctMpWXv9c9XUCQoAraHS1z9XfUom/VipyHMxFZm4Gco0R//n9CD5KadeRds5v3JlQxnuhhhkZUPZ zvmV5J9+rnVwu06btkXfHEeTskp+3r5X0b472zeZCk0ks6654ruzfYRrKvLczuiIWdUizHF039kU 4bOlRBatD5Q8Pr8Kd0NM4PH5VY/UeQivvuvjuH1nU6Z8lDmObu9OkbzLSdLQgnLhJ8un4m6Iafz7 0toF5QLJ2SiRh+3dxDgaTildQ1liO3p9o7heua6Q2LliKsmnn0We+/Nw1pSLH0xw9O2eIZLXlmIq 2nvXVHuqFdiJ18XvvWsqyUlTH8ftO2dCKDXhJ7c3PJz/h1jEKVnb31pD5nJ8/oS8wv7WGmKzUSJv jhv5OpqU1fZEhsyOPpFFLzb7jNW4o4UlodIXm31kzp9EnmtPZPLv7vN1tON8OkBkWlSfJxXGRH5i Hp9fRez8KeDgjl7KN5Tm6+iB82kCZ/T6D+wXE974UUjo3ymBmoo8/OFivqWf8/JLQXCwj8RCTj0K +vmiaqvLN5BDhdvx80XVBNYyF3nurbzLk+fl6LkBmcD3ImloS2MpjSvy+dAaKt3SWEpgKO1RUHdC zucT8nL0WFQibTCqZ0O/v6gGd0Mw8P1FNQRmTAMOLs+bHvJy9Eh0hLTBaI+CfrmkGAXV+eWSGtJ6 NpGHo3F8cXRvnKx9JHovP6e6BHdDsDGnuoS0Hj//IalxRyNDWdJ+ZQHg27dffUd3sUHgG+hRUD5Z UuOOnhmQiRqM9iraC/P8hbfmeaN4XfwL8/xEbd4LOLgzA8a7e+M/0e6BDDmDUUlDt3mcX5jlw90Q IvjCLN9tHic5Pb7IQ/dAxvCXG7fsWN+I4a81nZiKtn2WuD4OI9s+O4Wo7SZ/SeBw9MNBE7ZdmYKk oTVT3LZdF0QFLQFxzRQ3OaH0ffvjaCqjkXO9UExFT83z424FcTw1z09IKBV5LiKrhg/dG3eUkO9f 0tCdFa5izjddiznVJXdWuAgJpTEV2e1oZMiSSpMGiKno8Tl0H6OzjsfnVBASSiAPZww6eiGlkHDI TtLQTLejsHeI5sOSUOlMt4OEUOrjuMuSwWOiBh09N6iQkHiSNPhWM8s3TcS3mn0SAalSkQfD9fQM itY/Ys7R6TwZRGj1DC/uVhDN6hneQbuu1p6YXpsdvUyAo5KG1gdKimeTqDEq3A5CklApo+euDDoa HcHff0ga3NfIguj1+fIsIrr7v9o8Hu01+jwTiapoeT2tlZvsZHl9WZSA2X2/zbmnM7gT+JKGHqpx E3ysnyAEDh6qwdzd6yUhjH2tQUeHcYdRSYO2kAdzI+ihLeTB3t0bdsaIowoCwB3ABhFiC/STpyUg 4p/dG3WGgCSnIeoFvrGSjkrhJNBY6SahOqyxPfFUOippaE65wAajk0fgYGElKWv3NwqVjgLA7VNY EL0x6H1jVDoqadBMyZUg5NDsd2OfNhmDSkejKmooL8xSeNbRUC7gnzYZgkpHASBYxhy9MYJlwnDx xFGBA8D6C+nhgZ3/vFG8Lt6D950hMDbNNdhqD76NHPoRUGyPpxm8h0UNO2PQUbw7Z6tYEDUExvem 70Y39rUGG10v4twRFyhhjhoB73sz7IzBRuP9bt0EHFOhEbzvzbAzBr9sSgnOOOp2MkeNgPe9GXbG oKNVWB11EbD0zLhR6o3e7mLQ0UafgHHRwvCpgyJHxnf9iKRBtc3j0WleWhctGFgYRGiazXEU7zJP H0mFCykC73sz7IxBR70uHuN+xDD2YwB0gvG91To4w0uDxh0NYkrj6wWu7H9uAfDnYTxXD0saCrod djsKAJ/xYVuQ7FGMF7gqWlIZDeOeknxsMe5oC9ZSdUkWSm8QvGXk8rHFuKNNlS5c6aeAgzuXNF5z tTiJprO47i+QNGiqdBn+cuOOzqx046osIPJwOo+6wMXJaXz3F0RVNDOPA5LGWx0sczbgO/ZGVDV+ KsD4xhoELliGYzwKAG01Jbh26P1pgJQivbSA641JGmqryWvqkpejCwMlWIakIs+dkVXD9SyLkHBK wVX+SNJgYQCfoy0BEdeQ1Mdx713K99Lp4uG9SxKuuttRNd+KMnk52ljpxjUkFXl4J5zG8mgaeSec xjVhahC4pvwOmufVcIGDFdV4CrKJPLczyqZNk+XVCJ7bhyUN3ZN3Wa58f7lWTS/FuEnvEAulk+BQ OI3rRKikwbI63I4unV6Ka0ha6+B+e3YIy6Pp4rdnh3BtAIqqaOn0fG99ydfRCrdjjR9PsSuR53ZH JLZwPzGpjLY7IuHq6Nf4XflfWGBCH4C3Vu3BXhZKJwLv+zHFDRMcXdlQ1mOssGTeiDy89OEVLI+m hZc+vIJrRt+joJUNJlxYYELzQ15hURmeAhh6lfVjUZYoHZ9jUQnjntFFZc6Q0fMhozHnV2xDkxfX 7L7Wwb14fADPs4nnxeMDuGZLkgYbmsy5mcgcRzFepibyXPtl+QTbYjKGE30j7ZdlXNe/mHgFoTmO Vrgd6wPY9pfUOrinj/ZjeTTJPH20H18QNfMKQtOG0+tm+XBdQy3yXHsi08ny+aM4FE6/m8zgCqIx Fa2bZdpdw6Y52hoqrXVwuEJpg8B98wgLpf/PxiM4g2i9wLead2G7mWmJp5rLcc2cRJ6LZ7SX3mea AgC89H5/PKPhCqKSBptmm3lhu5mOPtDkw1i8xO/knv5okG0qDaeUpz8a9OMrPzaI0ANNpDpa4XZs qi/FWDu31sE9/G4U19MJ4eF3oxjLc0ga2lRfau6F7SYvQXxjrh/XmhMAiDx3VlKLucd/6f3+sxLO 64Z7FPSNuX5zP9NkR4Nlzo0hD8ZQqvf4xTnH7wyn8fbykoY2hjz5HK8bF/OXcr8+pwJXEkqnXuBX dcaLrUhEUlZXdcbrBZz1tWMqemK+yUEUrHC0ye9+pA5nKAWAWgfXtj+Cb9BhNwqCtv0RvLfWShp6 pM5jygL9VVjya/fEfJyjUvhkYPql30UwtsFOvvS7CN5hKAD0KGhzS5UVn2yJoyGvsKUR5wQfAPxO rqM/81hHDGMb7OGxjlhHfwbjMBQAJA1taSw1fSSqY9Xw5cmWKuw3qPqd3O6ItLUrjrkdVrK1K747 IuEVFAAkDZ60JoiCdY5WuB3P3FKewFeAXcfv5Lb1pgtV061d8W29aeyCJrLomVvKzc2JjoZDVq4M zX3tfCqLbVEuRyKL1tS6f7J8Kt5mmMvXfn+pPSZjF1TSkNfJH79/unWPsDZV8crCKrx5KB2/kzvY J6/dd7EwZvoKgrX7Lh7swy8oAMRU9MpCq3p5HWsdbQ2VYtxXOhqR506mlJbXz9O+oN+dkFteP38y pWDvneCTfaImbnEaF8tTvs8triEhlAKAyHOprDa7/cLbPbQeJX27Z2jegQgJwyedmIqeW1xj9VMs d7TC7di1oKqXjNtqRJ6rF/gv/rHvsY4YXf2+guCxjtgX/9hXL/CECNqraLsWVFk3Vcph7Zwpx8Pv RI4MYNsWPhZJQyLP/aK1Js+SbvbQGU5/80g/OeETACQNLax0/equoA3Psml5d/vSWnseNElEnpM0 dPvB6GMdMZJX9pOy+lhHbFVnnChBdWz7mdoURwHgUDi9tCPe7Cbr6nlJQzEVbbu14p9urcRXOX0c FAQ/Pzmw6WSy1sGRZucpWetYWrPE4qlSDvscBYCtXfGf/XWYhIzJVSSyyO/kttxSvq65AndbAAB2 nUo+fSIpaUDmu/rqTZ7vL7J8qpTDVkcBYPEb4QimotcTI2lI0kDk4anm8geafDZMBcaSlNXfdA/+ 4NQVvSVkvqWg23H4vpCdD7Xb0chQ9uY3w3i3OU6M3vs/Uuf5x9k+22ZUx6LSLz8a/OnFYQJ79tH0 KtrHa0MW7R25FnY7CgCd4TT23bjXRTe11sF9rbFs+fTSubWi6aNVBcHxmPT78+mfnBvSn0WynQDQ q2gHWmusztiPBYOjALDjxMCmk0nCNdXJybqi2t06VWwJiHlWdz/RN3Kyb6TzknSwT6ZCTZ1eRdt2 a8WjcyrtfzQeRwHgyc7Yzgv4N5VNHn3AOojQsAaLypyfrXLNqnCFvILHydWWOr0uh+fTkXZYQamM Gktnh7MonFJOJzP/25/pGsp6ePBxHJnDzWuRyKL108TnW/EkELE5CgBr910kZN35RsntQMhZq5uX Ky+g/3vu73MVQGn8ZhNZtKBceHN1Ha4G4HRUQbBsD6HTfIaOPpH/w70hjMljnCNCgYO9dwe9Tp6E jVGMseh7Q/feHcS7uoF51lLhdhxYGYRRvSeDEPSfyIGVQSyp4tHg7OtzhFPK7PYLtMxwiwE9m2F/ KnRciMj+hLzCB6uCMRWxaEoCuqAfrAqSICgQ4igANPndH62ZBqzTx43+/j9eG8ozDWwipDgKACGv cLhtGptCYUSfJB1um0ZIBNUhYjw6mqSstu2PsISU/SSyaIbo2Hs3/knSVRDnKAAoCO7ff/HoFYWi VSja0RP1r91dR9QmWh2C+vocAgdvrq5bP00k5BRUwdOraOuniW+uJlFQIDOO5qBo6wm9YNwsMkmI dhQ+2cjHUqdWoOeYsGy3uyFIdxQAIkPZBw9eOiupbHhqIvoMafeKqURN4ceFgm40WOY8fF/oqzd5 TslseGoOp2Ttqzd5Dt9HxDLSdaEgjuY4FE5/pasP6NzhRgh67vm/FlXbdqozf2hyFACSsrqhI9Z+ WWYTKQP0KtqaKe7tS2tJy4BODGWO6uz5eHDd0X42kZo8+vRo14Kqe28283Yve6DSUQBIyurmw/Gd 0RFm6sTodq4PlDy3uIau8JmDVkd19EJI8YzGpvzjksiiGhf/ysIqwrNLE0O3ozo7Tgx85y9X6DrF ZjX6CcFnbiknOTk/SQrBUQBIyurzx/qfPZduEIq965c01KOgLY2lT7bYUXjRBgrEUZ1wSnnh/QT5 1T4sIldhZXNLFRWJz0lSUI7q6Ka+HB4unpiqx86NIc8T8/1W3DSHlwJ0VCcylP3R8cS23jR1BRcm T64sxab60m/M9RdS7BxNwTqqk6tER1HVmsmgd+v1Ar9ptg9XlT/bKHBHc3SG07tOD+6MjlAdVnOB c32gZN0sH9UZpclTLI7qJGV139nU9u5U11C2QeCAkqV/fZG9R0GLypwbmryrZ3gLO3BeRXE5miOc Ut7uGdobHm5PZAIOQiOrHjWjKlrjd7WFPCsbygpvPjQZitTRHElZ7TifPnA+fbBP7lEQdl9zXjYI 3D0BcVmduHR6aVFFzbEUu6M5FATnBuRjUelIdGRvfCTnq45F1o6uv6d72VZTsjBQ0hIQGyvdZJ4u sh/m6PhEhrJnBuTugcyxvpEPB7MRWdVv6xtdqFHnuvpeVS5An/QAQK2DC7odn/E5W6pLmipdMyvd hZo8yhPm6KRIZbRURosMKRdSSp+k9qaUyyNqdETrldQzsjqsAowrKgKPA2a6HfWiI1DCTylx1HuF atExzSsEywSvi/e62C7Y68McNYdxb3ZknbUpMEcZpMP6GgbpMEcZpMMcZZAOc5RBOsxRBukwRxmk wxxlkA5zlEE6zFEG6TBHGaTDHGWQDnOUQTrMUQbpMEcZpMMcZZAOc5RBOv8HaFC6LREd8YsAAAAA SUVORK5CYII= "
     preserveAspectRatio="none"
     height="89.702042"
     width="89.702042" />
  <circle
     style="fill:#ff7d00"
     class="cls-1"
     cx="588.49249"
     cy="233.38754"
     r="60"
     id="circle4111" />
  <path
     style="fill:#ffffff"
     inkscape:connector-curvature="0"
     class="cls-2"
     d="M 579.51708,243.91575"
     id="path4113" />
  <g
     id="layer1"
     transform="matrix(5.1081567,0,0,5.1081567,694.79965,-5352.5051)">
    <text
       sodipodi:linespacing="125%"
       id="text4366"
       style="font-style:normal;font-weight:normal;font-size:11.25px;line-height:125%;font-family:Sans;letter-spacing:0px;word-spacing:0px;fill:#000000;fill-opacity:1;stroke:none;stroke-width:1px;stroke-linecap:butt;stroke-linejoin:miter;stroke-opacity:1"
       x="12"
       xml:space="preserve"
       y="1036.3622"><tspan
         id="tspan4368"
         x="12"
         y="1036.3622" /></text>
    <g
       id="text4981"
       style="font-style:normal;font-variant:normal;font-weight:normal;font-stretch:normal;font-size:12.37186241px;line-height:125%;font-family:'Roboto Condensed';-inkscape-font-specification:'Roboto Condensed, ';letter-spacing:0px;word-spacing:0px;fill:#000000;fill-opacity:1;stroke:none;stroke-width:1px;stroke-linecap:butt;stroke-linejoin:miter;stroke-opacity:1"
       transform="scale(1.1477838,0.87124422)" />
    <path
       inkscape:connector-curvature="0"
       d="m 18.806641,1023.3778 a 0.50004994,0.50004994 0 0 0 -0.345703,0.1465 l -4.486329,4.4844 c -1.079458,-1.5963 -2.907243,-2.6465 -4.974609,-2.6465 -3.307786,0 -6,2.6922 -6,6 0,1.7707 0.7756281,3.3596 2,4.459 l 0,10.541 c 0,1.0994 0.9006421,2 2,2 l 19,0 c 1.099357,0 2,-0.9006 2,-2 l 0,-4.5 0,-2 0,-6.5 c 0,-1.0993 -0.900643,-2 -2,-2 l -2.923828,-5.5156 a 0.50004994,0.50004994 0 0 0 -0.449219,-0.2657 0.50004994,0.50004994 0 0 0 -0.226562,0.059 l -0.730469,0.3868 -2.501953,-2.502 a 0.50004994,0.50004994 0 0 0 -0.361328,-0.1465 z m 0.0078,1.2071 1.931641,1.9316 -5.986328,3.1758 c -0.07689,-0.2648 -0.172099,-0.5211 -0.283204,-0.7696 l 4.337891,-4.3378 z M 9,1026.3622 c 2.767346,0 5,2.2327 5,5 0,2.7674 -2.232654,5 -5,5 -2.7673463,0 -5,-2.2326 -5,-5 0,-2.7673 2.2326537,-5 5,-5 z m 13.427734,0.3945 2.441407,4.6055 -9.869141,0 c 0,-0.2183 -0.01426,-0.4341 -0.03711,-0.6465 l 7.464843,-3.959 z m -13.7109371,0.6055 0,0.9258 c -0.2514655,0.031 -0.4782495,0.092 -0.6816407,0.1816 -0.2033911,0.09 -0.3772615,0.2054 -0.5214843,0.3457 -0.1405249,0.1404 -0.2504666,0.3053 -0.328125,0.4961 -0.07396,0.1909 -0.1113281,0.4007 -0.1113281,0.6309 0,0.2498 0.043852,0.4712 0.1289062,0.6621 0.088753,0.1908 0.2142402,0.3599 0.3769531,0.5058 0.166411,0.146 0.366634,0.2734 0.5996094,0.3829 0.2366734,0.1067 0.5029863,0.1998 0.7988281,0.2812 0.2218813,0.073 0.4091362,0.1499 0.5644534,0.2285 0.159015,0.079 0.286664,0.1632 0.382812,0.2559 0.099847,0.093 0.172421,0.1922 0.216797,0.2988 0.04438,0.1067 0.06641,0.2233 0.06641,0.3496 0,0.1516 -0.02656,0.2906 -0.08203,0.4141 -0.05547,0.1207 -0.136898,0.2235 -0.244141,0.3105 -0.103544,0.084 -0.233354,0.1497 -0.3886714,0.1973 -0.1516189,0.045 -0.3254892,0.068 -0.5214844,0.068 -0.1405248,0 -0.2813501,-0.018 -0.421875,-0.055 -0.1405248,-0.036 -0.2681738,-0.1007 -0.3828124,-0.1934 -0.1146384,-0.093 -0.2070811,-0.2178 -0.2773438,-0.375 -0.070263,-0.1572 -0.1054688,-0.3551 -0.1054688,-0.5937 l -0.9765624,0 c -1e-7,0.3172 0.050544,0.589 0.1503906,0.8164 0.099847,0.2246 0.2320265,0.4118 0.3984375,0.5605 0.170109,0.1488 0.365801,0.2612 0.5839843,0.3399 0.2181833,0.079 0.4428059,0.1312 0.6757813,0.1562 l 0,0.8086 0.7714844,0 0,-0.8086 c 0.2773521,-0.028 0.5261651,-0.084 0.7480471,-0.168 0.221881,-0.084 0.411089,-0.1975 0.566406,-0.3379 0.155317,-0.1403 0.276274,-0.3052 0.361328,-0.496 0.08506,-0.1938 0.126953,-0.411 0.126953,-0.6524 0,-0.247 -0.04169,-0.4643 -0.123047,-0.6523 -0.08136,-0.1881 -0.20036,-0.3549 -0.359375,-0.4981 -0.159015,-0.1432 -0.354915,-0.2683 -0.58789,-0.375 -0.232976,-0.1095 -0.50145,-0.2079 -0.8046878,-0.2949 -0.2366734,-0.076 -0.4368964,-0.1519 -0.5996093,-0.2305 -0.159015,-0.081 -0.2888253,-0.168 -0.3886719,-0.2578 -0.099846,-0.09 -0.1704674,-0.1863 -0.2148438,-0.293 -0.040678,-0.1094 -0.0625,-0.2324 -0.0625,-0.3671 0,-0.146 0.021822,-0.2797 0.0625,-0.4004 0.044376,-0.1207 0.1083049,-0.2225 0.1933594,-0.3067 0.088753,-0.087 0.1986943,-0.1555 0.328125,-0.2031 0.1294308,-0.048 0.2814793,-0.07 0.4589844,-0.07 0.1701091,0 0.3219494,0.031 0.455078,0.096 0.133129,0.065 0.245232,0.1545 0.333984,0.2695 0.088753,0.1151 0.154843,0.2511 0.199219,0.4082 0.04807,0.1573 0.07227,0.3315 0.07227,0.5196 l 0.970703,0 c 0,-0.5699 -0.142987,-1.0193 -0.427734,-1.3477 -0.28105,-0.3312 -0.679543,-0.5333 -1.197266,-0.6035 l 0,-0.9297 -0.7832031,0 z m 6.1914061,5 11.091797,0 c 0.562661,0 1,0.4374 1,1 l 0,4 -1.5,0 -1,0 -3,0 c -1.376355,0 -2.5,1.1237 -2.5,2.5 0,1.3764 1.123645,2.5 2.5,2.5 l 3,0 1,0 1.5,0 0,4 c 0,0.5627 -0.437339,1 -1,1 l -19,0 c -0.5626613,0 -1,-0.4373 -1,-1 l 0,-9.8125 c 0.8837515,0.5131 1.9068234,0.8125 3,0.8125 2.966128,0 5.429362,-2.1678 5.908203,-5 z m 0.0918,1 0,1 1,0 0,-1 -1,0 z m 2,0 0,1 1,0 0,-1 -1,0 z m 2,0 0,1 1,0 0,-1 -1,0 z m 2,0 0,1 1,0 0,-1 -1,0 z m 2,0 0,1 1,0 0,-1 -1,0 z m 2,0 0,1 1,0 0,-1 -1,0 z m 0,2 0,1 1,0 0,-1 -1,0 z m -18,2 0,1 1,0 0,-1 -1,0 z m 14.5,1 3,0 1,0 1.5,0 0,1.5 0,1.5 -1.5,0 -1,0 -3,0 c -0.839655,0 -1.5,-0.6603 -1.5,-1.5 0,-0.8396 0.660345,-1.5 1.5,-1.5 z m -14.5,1 0,1 1,0 0,-1 -1,0 z m 14,0 0,1 1,0 0,-1 -1,0 z m -14,2 0,1 1,0 0,-1 -1,0 z m 0,2 0,1 1,0 0,-1 -1,0 z m 18,0 0,1 1,0 0,-1 -1,0 z m -18,2 0,1 1,0 0,-1 -1,0 z m 2,0 0,1 1,0 0,-1 -1,0 z m 2,0 0,1 1,0 0,-1 -1,0 z m 2,0 0,1 1,0 0,-1 -1,0 z m 2,0 0,1 1,0 0,-1 -1,0 z m 2,0 0,1 1,0 0,-1 -1,0 z m 2,0 0,1 1,0 0,-1 -1,0 z m 2,0 0,1 1,0 0,-1 -1,0 z m 2,0 0,1 1,0 0,-1 -1,0 z m 2,0 0,1 1,0 0,-1 -1,0 z"
       id="rect4307"
       style="color:#000000;font-style:normal;font-variant:normal;font-weight:normal;font-stretch:normal;font-size:medium;line-height:normal;font-family:sans-serif;text-indent:0;text-align:start;text-decoration:none;text-decoration-line:none;text-decoration-style:solid;text-decoration-color:#000000;letter-spacing:normal;word-spacing:normal;text-transform:none;direction:ltr;block-progression:tb;writing-mode:lr-tb;baseline-shift:baseline;text-anchor:start;white-space:normal;clip-rule:nonzero;display:inline;overflow:visible;visibility:visible;opacity:1;isolation:auto;mix-blend-mode:normal;color-interpolation:sRGB;color-interpolation-filters:linearRGB;solid-color:#000000;solid-opacity:1;fill:#000000;fill-opacity:1;fill-rule:nonzero;stroke:none;stroke-width:1;stroke-linecap:butt;stroke-linejoin:round;stroke-miterlimit:4;stroke-dasharray:none;stroke-dashoffset:0;stroke-opacity:1;color-rendering:auto;image-rendering:auto;shape-rendering:auto;text-rendering:auto;enable-background:accumulate" />
    <g
       id="text4922"
       style="font-style:normal;font-variant:normal;font-weight:normal;font-stretch:normal;font-size:9.89761639px;line-height:125%;font-family:'Roboto Condensed';-inkscape-font-specification:'Roboto Condensed, ';letter-spacing:0px;word-spacing:0px;fill:#000000;fill-opacity:1;stroke:none;stroke-width:1px;stroke-linecap:butt;stroke-linejoin:miter;stroke-opacity:1"
       transform="scale(1.1477838,0.87124422)" />
  </g>
  <g
     id="g3836"
     transform="translate(372.81264,-131.57212)"
     style="fill:#2aa9e0;fill-opacity:1">
    <path
       id="path3838"
       d="m 166.091,65.046 -21.08,16.693 -6.747,0 17.19,-13.615 8.022,-6.358 0.011,-0.007 c 0.087,-0.068 0.159,-0.154 0.238,-0.233 0.753,-0.753 1.038,-1.828 0.795,-2.821 -0.1,-0.412 -0.271,-0.806 -0.548,-1.151 l -21.894,-27.643 -6.357,-8.026 c -1.027,-1.295 -2.907,-1.514 -4.203,-0.489 l -8.044,6.374 -68.138,53.969 -6.754,0 80.333,-63.625 c 3.101,-2.453 7.639,-1.927 10.095,1.17 l 28.253,35.667 c 2.452,3.101 1.925,7.64 -1.172,10.095 z m -9.829,-14.321 c 0.005,-0.003 0.005,-0.003 0.007,-0.007 L 140.596,30.934 c -5.097,3.038 -11.632,2.279 -15.912,-1.831 l -66.457,52.636 32.105,0 c -4.907,-8.741 -3.833,-19.144 3.05,-24.598 7.789,-6.169 20.055,-3.658 27.393,5.606 4.63,5.843 6.185,12.972 4.758,18.992 l 9.836,0 19.06,-15.099 c -3.036,-5.1 -2.28,-11.633 1.833,-15.915 z m -49.48,19.929 c -3.265,1.046 -4.792,1.246 -5.566,0.268 -0.655,-0.827 -0.687,-2.148 1.233,-3.672 2.132,-1.686 4.028,-2.085 5.055,-2.369 l -1.787,-4.019 c -1.351,0.298 -3.012,0.94 -5.065,2.421 l -1.027,-1.3 C 99.362,61.65 98.97,61.415 98.507,61.366 98.055,61.312 97.62,61.45 97.282,61.713 l -0.284,0.228 c -0.335,0.265 -0.566,0.655 -0.622,1.114 -0.053,0.456 0.084,0.892 0.35,1.227 l 1.191,1.503 c -2.673,3.129 -2.891,6.623 -0.829,9.224 2.272,2.87 5.603,2.641 9.615,1.199 2.773,-0.997 4.283,-1.036 5.172,0.085 0.938,1.188 0.3,2.751 -1.388,4.087 -0.692,0.549 -1.423,0.994 -2.16,1.358 l 6.992,0 c 2.778,-3.241 2.827,-6.878 0.781,-9.462 -2.107,-2.665 -4.81,-3.166 -9.318,-1.622 z"
       inkscape:connector-curvature="0"
       style="fill:#2aa9e0;fill-opacity:1" />
    <path
       id="path3840"
       d="m 167.031,77.586 -10.063,0 7.614,-6.034 c 0.033,0.03 0.066,0.054 0.095,0.084 1.569,1.57 2.354,3.627 2.354,5.684 l 0,0.266 z m 16.072,55.716 0,19.286 c 0,0.618 -0.236,1.235 -0.706,1.704 -0.474,0.472 -1.09,0.708 -1.707,0.708 l -33.75,0 c -3.084,0 -6.167,-1.177 -8.521,-3.53 -2.354,-2.354 -3.53,-5.439 -3.53,-8.523 0,-3.087 1.176,-6.172 3.53,-8.525 2.354,-2.353 5.438,-3.53 8.521,-3.53 l 33.75,0 c 0.617,0 1.233,0.237 1.707,0.706 0.469,0.47 0.706,1.089 0.706,1.704 z m -30.086,9.644 c 0,-3.356 -2.721,-6.077 -6.077,-6.077 -3.355,0 -6.076,2.721 -6.076,6.077 0,3.355 2.721,6.076 6.076,6.076 3.356,0 6.077,-2.72 6.077,-6.076 z m -6.078,16.07 31.603,0 0,28.931 c 0,3.085 -1.178,6.169 -3.53,8.523 -2.354,2.354 -5.438,3.53 -8.525,3.53 l -137.534,0 c -3.085,0 -6.17,-1.177 -8.521,-3.53 -2.356,-2.354 -3.534,-5.438 -3.534,-8.523 l 0,-106.611 c 0,-3.083 1.177,-6.169 3.534,-8.521 2.351,-2.355 5.437,-3.53 8.521,-3.53 l 7.951,0 -3.559,8.302 -4.124,0 c -1.028,0 -2.057,0.393 -2.84,1.178 -0.789,0.785 -1.179,1.815 -1.179,2.841 l 0,0.267 c 0,1.03 0.391,2.057 1.179,2.842 0.783,0.785 1.812,1.177 2.84,1.177 l 137.265,0 c 3.087,0 6.172,1.177 8.525,3.53 2.353,2.354 3.53,5.438 3.53,8.523 l 0,28.929 -31.603,0 c -4.292,0 -8.327,1.671 -11.363,4.705 -3.034,3.038 -4.708,7.073 -4.708,11.367 0,4.293 1.674,8.327 4.708,11.363 3.037,3.037 7.073,4.707 11.364,4.707 z m 22.359,-42.991 c 0,-0.662 -0.539,-1.205 -1.203,-1.205 -0.664,0 -1.205,0.543 -1.205,1.205 l 0,5.626 c 0,0.662 0.541,1.205 1.205,1.205 0.664,0 1.203,-0.543 1.203,-1.205 l 0,-5.626 z m 0,-12.053 c 0,-0.662 -0.539,-1.205 -1.203,-1.205 -0.664,0 -1.205,0.543 -1.205,1.205 l 0,5.626 c 0,0.66 0.541,1.203 1.205,1.203 0.664,0 1.203,-0.543 1.203,-1.203 l 0,-5.626 z m -4.654,-7.634 c 0,0.664 0.541,1.205 1.207,1.205 l 0.636,0 c 0.179,0 0.403,0.226 0.403,0.401 l 0,0.638 c 0,0.666 0.539,1.206 1.205,1.206 0.666,0 1.203,-0.54 1.203,-1.206 l 0,-0.638 c 0,-1.498 -1.312,-2.812 -2.812,-2.812 l -0.636,0 c -0.665,10e-4 -1.206,0.539 -1.206,1.206 z m -10.672,0 c 0,0.662 0.542,1.205 1.206,1.205 l 5.623,0 c 0.664,0 1.209,-0.543 1.209,-1.205 0,-0.664 -0.545,-1.206 -1.209,-1.206 l -5.623,0 c -0.664,10e-4 -1.206,0.542 -1.206,1.206 z m -12.054,0 c 0,0.662 0.54,1.205 1.204,1.205 l 5.625,0 c 0.664,0 1.207,-0.543 1.207,-1.205 0,-0.664 -0.543,-1.206 -1.207,-1.206 l -5.625,0 c -0.664,10e-4 -1.204,0.542 -1.204,1.206 z m -12.056,0 c 0,0.662 0.545,1.205 1.209,1.205 l 5.622,0 c 0.664,0 1.206,-0.543 1.206,-1.205 0,-0.664 -0.542,-1.206 -1.206,-1.206 l -5.622,0 c -0.664,10e-4 -1.209,0.542 -1.209,1.206 z M 26.14,98.583 c 0,0.666 0.541,1.206 1.207,1.206 0.666,0 1.204,-0.54 1.204,-1.206 l 0,-0.638 c 0,-0.175 0.226,-0.401 0.403,-0.401 l 0.636,0 c 0.667,0 1.205,-0.541 1.205,-1.205 0,-0.667 -0.538,-1.206 -1.205,-1.206 l -0.636,0 c -1.5,0 -2.813,1.314 -2.813,2.812 l 0,0.638 z m 0,11.015 c 0,0.66 0.543,1.203 1.207,1.203 0.664,0 1.204,-0.543 1.204,-1.203 l 0,-5.626 c 0,-0.662 -0.54,-1.205 -1.204,-1.205 -0.664,0 -1.207,0.543 -1.207,1.205 l 0,5.626 z m 0,12.053 c 0,0.662 0.543,1.205 1.207,1.205 0.664,0 1.204,-0.543 1.204,-1.205 l 0,-5.626 c 0,-0.662 -0.54,-1.205 -1.204,-1.205 -0.664,0 -1.207,0.543 -1.207,1.205 l 0,5.626 z m 0,12.054 c 0,0.662 0.543,1.205 1.207,1.205 0.664,0 1.204,-0.543 1.204,-1.205 l 0,-5.626 c 0,-0.662 -0.54,-1.205 -1.204,-1.205 -0.664,0 -1.207,0.543 -1.207,1.205 l 0,5.626 z m 0,12.054 c 0,0.664 0.543,1.205 1.207,1.205 0.664,0 1.204,-0.541 1.204,-1.205 l 0,-5.626 c 0,-0.662 -0.54,-1.205 -1.204,-1.205 -0.664,0 -1.207,0.543 -1.207,1.205 l 0,5.626 z m 0,12.054 c 0,0.664 0.543,1.203 1.207,1.203 0.664,0 1.204,-0.539 1.204,-1.203 l 0,-5.626 c 0,-0.662 -0.54,-1.205 -1.204,-1.205 -0.664,0 -1.207,0.543 -1.207,1.205 l 0,5.626 z m 0,12.051 c 0,0.666 0.543,1.207 1.207,1.207 0.664,0 1.204,-0.541 1.204,-1.207 l 0,-5.624 c 0,-0.662 -0.54,-1.205 -1.204,-1.205 -0.664,0 -1.207,0.543 -1.207,1.205 l 0,5.624 z m 0,12.056 c 0,0.664 0.543,1.205 1.207,1.205 0.664,0 1.204,-0.541 1.204,-1.205 l 0,-5.626 c 0,-0.662 -0.54,-1.205 -1.204,-1.205 -0.664,0 -1.207,0.543 -1.207,1.205 l 0,5.626 z m 4.656,7.633 c 0,-0.665 -0.54,-1.205 -1.206,-1.205 l -0.638,0 c -0.177,0 -0.403,-0.226 -0.403,-0.401 l 0,-0.638 c 0,-0.666 -0.538,-1.205 -1.204,-1.205 -0.666,0 -1.207,0.539 -1.207,1.205 l 0,0.638 c 0,1.498 1.314,2.813 2.813,2.813 l 0.638,0 c 0.668,-0.001 1.207,-0.539 1.207,-1.207 z m 10.675,0 c 0,-0.662 -0.545,-1.205 -1.206,-1.205 l -5.625,0 c -0.664,0 -1.206,0.543 -1.206,1.205 0,0.662 0.542,1.206 1.206,1.206 l 5.625,0 c 0.661,0 1.206,-0.544 1.206,-1.206 z m 0,-93.215 c 0,-0.664 -0.545,-1.206 -1.206,-1.206 l -5.625,0 c -0.664,0 -1.206,0.542 -1.206,1.206 0,0.662 0.542,1.205 1.206,1.205 l 5.625,0 c 0.661,0 1.206,-0.543 1.206,-1.205 z m 12.052,93.215 c 0,-0.662 -0.543,-1.205 -1.205,-1.205 l -5.622,0 c -0.666,0 -1.208,0.543 -1.208,1.205 0,0.662 0.542,1.206 1.208,1.206 l 5.622,0 c 0.662,0 1.205,-0.544 1.205,-1.206 z m 0,-93.215 c 0,-0.664 -0.543,-1.206 -1.205,-1.206 l -5.622,0 c -0.666,0 -1.208,0.542 -1.208,1.206 0,0.662 0.542,1.205 1.208,1.205 l 5.622,0 c 0.662,0 1.205,-0.543 1.205,-1.205 z m 12.056,93.215 c 0,-0.662 -0.545,-1.205 -1.207,-1.205 l -5.626,0 c -0.664,0 -1.204,0.543 -1.204,1.205 0,0.662 0.54,1.206 1.204,1.206 l 5.626,0 c 0.662,0 1.207,-0.544 1.207,-1.206 z m 0,-93.215 c 0,-0.664 -0.545,-1.206 -1.207,-1.206 l -5.626,0 c -0.664,0 -1.204,0.542 -1.204,1.206 0,0.662 0.54,1.205 1.204,1.205 l 5.626,0 c 0.662,0 1.207,-0.543 1.207,-1.205 z m 12.051,93.215 c 0,-0.662 -0.541,-1.205 -1.205,-1.205 l -5.624,0 c -0.664,0 -1.206,0.543 -1.206,1.205 0,0.662 0.542,1.206 1.206,1.206 l 5.624,0 c 0.664,0 1.205,-0.544 1.205,-1.206 z m 0,-93.215 c 0,-0.664 -0.541,-1.206 -1.205,-1.206 l -5.624,0 c -0.664,0 -1.206,0.542 -1.206,1.206 0,0.662 0.542,1.205 1.206,1.205 l 5.624,0 c 0.664,0 1.205,-0.543 1.205,-1.205 z m 12.054,93.215 c 0,-0.662 -0.543,-1.205 -1.204,-1.205 l -5.625,0 c -0.664,0 -1.206,0.543 -1.206,1.205 0,0.662 0.542,1.206 1.206,1.206 l 5.625,0 c 0.661,0 1.204,-0.544 1.204,-1.206 z m 0,-93.215 c 0,-0.664 -0.543,-1.206 -1.204,-1.206 l -5.625,0 c -0.664,0 -1.206,0.542 -1.206,1.206 0,0.662 0.542,1.205 1.206,1.205 l 5.625,0 c 0.661,0 1.204,-0.543 1.204,-1.205 z m 12.054,93.215 c 0,-0.662 -0.542,-1.205 -1.206,-1.205 l -5.624,0 c -0.664,0 -1.204,0.543 -1.204,1.205 0,0.662 0.54,1.206 1.204,1.206 l 5.624,0 c 0.664,0 1.206,-0.544 1.206,-1.206 z m 0,-93.215 c 0,-0.664 -0.542,-1.206 -1.206,-1.206 l -5.624,0 c -0.664,0 -1.204,0.542 -1.204,1.206 0,0.662 0.54,1.205 1.204,1.205 l 5.624,0 c 0.664,0 1.206,-0.543 1.206,-1.205 z m 12.054,93.215 c 0,-0.662 -0.54,-1.205 -1.204,-1.205 l -5.627,0 c -0.661,0 -1.206,0.543 -1.206,1.205 0,0.662 0.545,1.206 1.206,1.206 l 5.627,0 c 0.664,0 1.204,-0.544 1.204,-1.206 z m 0,-93.215 c 0,-0.664 -0.54,-1.206 -1.204,-1.206 l -5.627,0 c -0.661,0 -1.206,0.542 -1.206,1.206 0,0.662 0.545,1.205 1.206,1.205 l 5.627,0 c 0.664,0 1.204,-0.543 1.204,-1.205 z m 12.055,93.215 c 0,-0.662 -0.544,-1.205 -1.205,-1.205 l -5.625,0 c -0.664,0 -1.206,0.543 -1.206,1.205 0,0.662 0.542,1.206 1.206,1.206 l 5.625,0 c 0.661,0 1.205,-0.544 1.205,-1.206 z m 0,-93.215 c 0,-0.664 -0.544,-1.206 -1.205,-1.206 l -5.625,0 c -0.664,0 -1.206,0.542 -1.206,1.206 0,0.662 0.542,1.205 1.206,1.205 l 5.625,0 c 0.661,0 1.205,-0.543 1.205,-1.205 z m 12.052,93.215 c 0,-0.662 -0.542,-1.205 -1.206,-1.205 l -5.622,0 c -0.664,0 -1.209,0.543 -1.209,1.205 0,0.662 0.545,1.206 1.209,1.206 l 5.622,0 c 0.664,0 1.206,-0.544 1.206,-1.206 z m 28.991,-19.689 c 0,0.666 0.541,1.207 1.205,1.207 0.664,0 1.203,-0.541 1.203,-1.207 l 0,-5.624 c 0,-0.662 -0.539,-1.205 -1.203,-1.205 -0.664,0 -1.205,0.543 -1.205,1.205 l 0,5.624 z m 0,12.056 c 0,0.664 0.541,1.205 1.205,1.205 0.664,0 1.203,-0.541 1.203,-1.205 l 0,-5.626 c 0,-0.662 -0.539,-1.205 -1.203,-1.205 -0.664,0 -1.205,0.543 -1.205,1.205 l 0,5.626 z m -2.246,7.633 c 0,0.668 0.541,1.206 1.207,1.206 l 0.636,0 c 1.5,0 2.812,-1.314 2.812,-2.813 l 0,-0.638 c 0,-0.666 -0.537,-1.205 -1.203,-1.205 -0.666,0 -1.205,0.539 -1.205,1.205 l 0,0.638 c 0,0.176 -0.225,0.401 -0.403,0.401 l -0.636,0 c -0.667,0.001 -1.208,0.541 -1.208,1.206 z m -10.672,0 c 0,0.662 0.542,1.206 1.206,1.206 l 5.623,0 c 0.664,0 1.209,-0.544 1.209,-1.206 0,-0.662 -0.545,-1.205 -1.209,-1.205 l -5.623,0 c -0.664,0 -1.206,0.543 -1.206,1.205 z m -5.225,-1.205 -5.625,0 c -0.664,0 -1.204,0.543 -1.204,1.205 0,0.662 0.54,1.206 1.204,1.206 l 5.625,0 c 0.664,0 1.207,-0.544 1.207,-1.206 0,-0.662 -0.543,-1.205 -1.207,-1.205 z"
       inkscape:connector-curvature="0"
       style="fill:#2aa9e0;fill-opacity:1" />
    <path
       id="path3842"
       d="m 69.047,52.989 3.487,2.688 c -0.768,0.736 -2.248,1.99 -3.32,4.489 -0.024,0.056 -0.037,0.102 -0.058,0.156 l -4.814,3.814 c -0.104,-0.957 -0.047,-1.997 0.189,-3.106 l -1.764,-0.755 c -0.391,-0.168 -0.72,-0.485 -0.888,-0.911 -0.172,-0.427 -0.151,-0.883 0.014,-1.275 l 0.144,-0.336 c 0.17,-0.393 0.487,-0.72 0.916,-0.892 0.424,-0.172 0.881,-0.152 1.274,0.016 l 1.521,0.655 c 1.096,-2.283 2.253,-3.636 3.299,-4.543 z M 120.363,18.506 78.543,0.58 c -3.632,-1.559 -7.877,0.14 -9.437,3.77 l -33.17,77.389 4.557,0 L 68.917,15.433 72.961,6 c 0.652,-1.517 2.413,-2.221 3.93,-1.569 l 9.414,4.033 31.352,13.443 3.655,-2.896 c -0.3,-0.188 -0.614,-0.363 -0.949,-0.505 z m -11.683,1.517 c 0.003,-0.005 0.003,-0.008 0.003,-0.01 l -23.2,-9.944 c -3.038,5.1 -9.146,7.542 -14.867,5.964 L 42.622,81.336 57.201,69.79 c -2.297,-4.529 -2.733,-9.624 -0.771,-14.205 3.914,-9.133 15.896,-12.761 26.762,-8.104 0.466,0.2 0.92,0.417 1.368,0.641 l 24.656,-19.529 c -1.097,-2.655 -1.341,-5.661 -0.536,-8.57 z"
       inkscape:connector-curvature="0"
       style="fill:#2aa9e0;fill-opacity:1" />
  </g>
  <g
     transform="translate(68,-66)"
     id="g4447">
    <g
       id="g4449"
       transform="matrix(2.7109275,0,0,2.7109275,112.73312,-85.983205)"
       style="fill:#2aa9e0;fill-opacity:1">
      <text
         sodipodi:linespacing="125%"
         id="text4451"
         y="-110.45945"
         x="-172.55768"
         style="font-style:normal;font-weight:normal;font-size:29.75739098px;line-height:125%;font-family:sans-serif;letter-spacing:0px;word-spacing:0px;fill:#00aad4;fill-opacity:1;stroke:none;stroke-width:1px;stroke-linecap:butt;stroke-linejoin:miter;stroke-opacity:1"
         xml:space="preserve"><tspan
           style="font-style:normal;font-variant:normal;font-weight:bold;font-stretch:normal;font-family:Tahoma;-inkscape-font-specification:'Tahoma Bold';fill:#00aad4;fill-opacity:1"
           y="-110.45945"
           x="-172.55768"
           id="tspan4453"
           sodipodi:role="line">DRUPAL</tspan></text>
      <text
         xml:space="preserve"
         style="font-style:normal;font-weight:normal;font-size:33.23648834px;line-height:125%;font-family:sans-serif;letter-spacing:0px;word-spacing:0px;fill:#00aad4;fill-opacity:1;stroke:none;stroke-width:1px;stroke-linecap:butt;stroke-linejoin:miter;stroke-opacity:1"
         x="-173.18817"
         y="-79.157532"
         id="text4455"
         sodipodi:linespacing="125%"><tspan
           sodipodi:role="line"
           id="tspan4457"
           x="-173.18817"
           y="-79.157532"
           style="font-style:normal;font-variant:normal;font-weight:bold;font-stretch:normal;font-family:Tahoma;-inkscape-font-specification:'Tahoma Bold';fill:#00aad4;fill-opacity:1">DONATION</tspan></text>
    </g>
    <g
       id="g4459"
       transform="matrix(0.88250434,0,0,0.90537984,-74.04371,-91.397474)">
      <path
         sodipodi:nodetypes="cssssssssscssccsssssscssssssssssscscsssccccccsscc"
         inkscape:connector-curvature="0"
         id="path4461"
         d="m -221.69836,-70.233455 c 3.14283,-7.848857 24.91133,-23.665483 19.62371,-30.300925 -0.82865,-1.03987 -1.02157,-1.40888 -0.84671,-1.61958 0.12455,-0.15007 0.33258,-0.27286 0.46228,-0.27286 0.1297,0 0.91799,-0.32692 1.75175,-0.72649 3.93904,-1.88774 7.11416,-5.20792 8.75913,-9.15931 1.05178,-2.5265 1.31202,-3.96841 1.29986,-7.2023 -0.006,-1.59914 0.0571,-2.90752 0.14024,-2.90752 0.2774,0 3.48099,3.95228 4.87887,6.01909 2.53614,3.74974 3.85125,6.54991 4.83929,10.30386 0.51189,1.94493 0.56505,2.4809 0.57674,5.81506 0.0141,4.008247 -0.20663,5.482683 -1.34373,8.977622 -0.69241,2.128157 -2.56661,5.860839 -3.67814,7.845734 -4.09237,7.307898 -15.4078,15.737033 -21.33566,16.308019 -2.40364,0.794411 -6.03611,-0.600037 -15.12763,-3.0804 z m -18.67897,-2.634029 c -2.20786,-1.540472 -5.82958,-4.996234 -7.57226,-7.225271 -3.24117,-4.145751 -5.39192,-8.562127 -6.62113,-13.595915 -2.89214,-11.84377 0.69073,-24.45754 8.95483,-31.52612 2.34616,-2.00675 4.9838,-3.67306 9.71502,-6.13738 6.65182,-3.4647 8.8206,-4.92306 10.63668,-7.1525 2.22582,-2.73242 3.12786,-5.5026 3.2841,-10.08552 0.0603,-1.76747 0.1759,-3.21358 0.25698,-3.21358 0.0811,0 0.69964,0.61976 1.37457,1.37725 2.61061,2.92995 9.29455,9.30951 13.06385,12.46894 1.31606,1.10312 1.18725,1.25255 -1.0798,1.25255 -6.57398,0 -12.37286,3.52491 -15.47754,9.40817 -2.2778,4.31636 -2.6709,9.11964 -1.12417,13.73632 0.33933,1.01283 0.88711,2.31369 1.2173,2.8908 0.81554,1.42542 0.78302,1.64753 -0.26682,1.82186 -1.53031,0.25412 -4.25141,1.11189 -5.80653,1.8304 -4.3181,1.99509 -8.34805,5.82276 -10.63339,10.099656 -3.98441,7.456635 -3.50255,16.754267 1.22976,23.728582 0.4413,0.650374 2.14067,2.452902 1.0399,1.775382 -0.57919,-0.363398 -1.19149,-0.755999 -2.19135,-1.453624 z m 1.85141,1.253198 c -5.04567,-3.775773 -5.41492,-8.803999 -5.76337,-14.837368 -0.45724,-7.91699 12.60884,-27.166866 20.52583,-26.709626 5.58193,0.32237 29.9859,12.86872 31.83028,18.172231 0.70858,2.037524 1.00294,23.993709 -14.09573,27.988154 -9.02574,2.589797 -27.09661,-0.405452 -32.49701,-4.613391 z m 10.60183,-43.062254 c -0.0778,-1.81316 1.92943,-12.40978 2.28899,-13.59362 1.05173,-3.4626 14.49659,-11.89339 18.37137,-9.67203 5.81617,5.43117 7.77626,7.18248 16.77154,15.50122 0.42677,3.22696 -1.17531,14.3506 -3.5164,16.51802 -1.42977,1.32373 -11.3974,4.98894 -13.32578,5.39741 -1.71927,0.36418 -11.43181,-3.78143 -13.10613,-4.14531 -3.16321,-6.56485 -7.67158,-6.413 -7.48359,-10.00569 z"
         style="fill:#2aa9e0;fill-opacity:1"
         transform="matrix(2.7109275,0,0,2.7109275,147.73312,-25.983205)" />
      <g
         style="overflow:visible;fill:#ffffff;fill-opacity:1"
         id="g4463"
         transform="matrix(5.0611434,0,0,5.0611434,-482.33661,-382.13112)">
        <g
           style="fill:#ffffff;fill-opacity:1"
           id="g4465">
          <g
             style="fill:#ffffff;fill-opacity:1"
             id="g4467">
            <g
               style="fill:#ffffff;fill-opacity:1"
               id="g4469">
              <rect
                 x="5.6999998"
                 width="4"
                 style="fill:#ffffff;fill-opacity:1"
                 id="rect4471"
                 height="6"
                 y="0" />
              <rect
                 y="26"
                 x="5.6999998"
                 width="4"
                 style="fill:#ffffff;fill-opacity:1"
                 id="rect4473"
                 height="6" />
              <polygon
                 style="fill:#ffffff;fill-opacity:1"
                 points="9.7,27 5.7,27 9.7,31 "
                 id="polygon4475" />
              <path
                 style="fill:#ffffff;fill-opacity:1"
                 id="path4477"
                 d="m 1.1,22.3 c 1.4,0.7 3.6,1.4 5.8,1.4 2.4,0 3.7,-1 3.7,-2.6 0,-1.4 -1.1,-2.3 -3.9,-3.2 C 2.8,16.5 0.3,14.4 0.3,11 0.3,7 3.6,4 9.1,4 11.8,4 13.7,4.5 15,5.2 L 13.8,9.4 C 12.9,8.9 11.2,8.3 9,8.3 c -2.3,0 -3.4,1.1 -3.4,2.2 0,1.5 1.3,2.1 4.3,3.3 4.1,1.5 6,3.7 6,7 0,3.9 -3,7.2 -9.4,7.2 -2.7,0 -5.3,-0.7 -6.6,-1.4 l 1.2,-4.3 z"
                 inkscape:connector-curvature="0" />
            </g>
          </g>
        </g>
      </g>
    </g>
  </g>
  <g
     id="g4430"
     transform="matrix(0.24322942,0,0,0.24322942,140.05875,82.97637)">
    <g
       transform="matrix(0.27498696,0,0,0.28211492,-421.1359,-217.62205)"
       id="g4419">
      <path
         transform="matrix(2.7109275,0,0,2.7109275,147.73312,-25.983205)"
         style="fill:#e29700;fill-opacity:1"
         d="m -221.69836,-70.233455 c 3.14283,-7.848857 24.91133,-23.665483 19.62371,-30.300925 -0.82865,-1.03987 -1.02157,-1.40888 -0.84671,-1.61958 0.12455,-0.15007 0.33258,-0.27286 0.46228,-0.27286 0.1297,0 0.91799,-0.32692 1.75175,-0.72649 3.93904,-1.88774 7.11416,-5.20792 8.75913,-9.15931 1.05178,-2.5265 1.31202,-3.96841 1.29986,-7.2023 -0.006,-1.59914 0.0571,-2.90752 0.14024,-2.90752 0.2774,0 3.48099,3.95228 4.87887,6.01909 2.53614,3.74974 3.85125,6.54991 4.83929,10.30386 0.51189,1.94493 0.56505,2.4809 0.57674,5.81506 0.0141,4.008247 -0.20663,5.482683 -1.34373,8.977622 -0.69241,2.128157 -2.56661,5.860839 -3.67814,7.845734 -4.09237,7.307898 -15.4078,15.737033 -21.33566,16.308019 -2.40364,0.794411 -6.03611,-0.600037 -15.12763,-3.0804 z m -18.67897,-2.634029 c -2.20786,-1.540472 -5.82958,-4.996234 -7.57226,-7.225271 -3.24117,-4.145751 -5.39192,-8.562127 -6.62113,-13.595915 -2.89214,-11.84377 0.69073,-24.45754 8.95483,-31.52612 2.34616,-2.00675 4.9838,-3.67306 9.71502,-6.13738 6.65182,-3.4647 8.8206,-4.92306 10.63668,-7.1525 2.22582,-2.73242 3.12786,-5.5026 3.2841,-10.08552 0.0603,-1.76747 0.1759,-3.21358 0.25698,-3.21358 0.0811,0 0.69964,0.61976 1.37457,1.37725 2.61061,2.92995 9.29455,9.30951 13.06385,12.46894 1.31606,1.10312 1.18725,1.25255 -1.0798,1.25255 -6.57398,0 -12.37286,3.52491 -15.47754,9.40817 -2.2778,4.31636 -2.6709,9.11964 -1.12417,13.73632 0.33933,1.01283 0.88711,2.31369 1.2173,2.8908 0.81554,1.42542 0.78302,1.64753 -0.26682,1.82186 -1.53031,0.25412 -4.25141,1.11189 -5.80653,1.8304 -4.3181,1.99509 -8.34805,5.82276 -10.63339,10.099656 -3.98441,7.456635 -3.50255,16.754267 1.22976,23.728582 0.4413,0.650374 2.14067,2.452902 1.0399,1.775382 -0.57919,-0.363398 -1.19149,-0.755999 -2.19135,-1.453624 z m 1.85141,1.253198 c -5.04567,-3.775773 -5.41492,-8.803999 -5.76337,-14.837368 -0.45724,-7.91699 12.60884,-27.166866 20.52583,-26.709626 5.58193,0.32237 29.9859,12.86872 31.83028,18.172231 0.70858,2.037524 1.00294,23.993709 -14.09573,27.988154 -9.02574,2.589797 -27.09661,-0.405452 -32.49701,-4.613391 z m 10.60183,-43.062254 c -0.0778,-1.81316 1.92943,-12.40978 2.28899,-13.59362 1.05173,-3.4626 14.49659,-11.89339 18.37137,-9.67203 5.81617,5.43117 7.77626,7.18248 16.77154,15.50122 0.42677,3.22696 -1.17531,14.3506 -3.5164,16.51802 -1.42977,1.32373 -11.3974,4.98894 -13.32578,5.39741 -1.71927,0.36418 -11.43181,-3.78143 -13.10613,-4.14531 -3.16321,-6.56485 -7.67158,-6.413 -7.48359,-10.00569 z"
         id="path4233"
         inkscape:connector-curvature="0"
         sodipodi:nodetypes="cssssssssscssccsssssscssssssssssscscsssccccccsscc" />
      <g
         transform="matrix(5.0611434,0,0,5.0611434,-482.33661,-382.13112)"
         id="g4358"
         style="overflow:visible;fill:#ffffff;fill-opacity:1">
        <g
           id="g4344"
           style="fill:#ffffff;fill-opacity:1">
          <g
             id="_x24_-sign_1_"
             style="fill:#ffffff;fill-opacity:1">
            <g
               id="_x24_-sign"
               style="fill:#ffffff;fill-opacity:1">
              <rect
                 y="0"
                 height="6"
                 id="Top"
                 style="fill:#ffffff;fill-opacity:1"
                 width="4"
                 x="5.6999998" />
              <rect
                 height="6"
                 id="Bottom"
                 style="fill:#ffffff;fill-opacity:1"
                 width="4"
                 x="5.6999998"
                 y="26" />
              <polygon
                 id="Shadow"
                 points="9.7,31 9.7,27 5.7,27 "
                 style="fill:#ffffff;fill-opacity:1" />
              <path
                 inkscape:connector-curvature="0"
                 d="m 1.1,22.3 c 1.4,0.7 3.6,1.4 5.8,1.4 2.4,0 3.7,-1 3.7,-2.6 0,-1.4 -1.1,-2.3 -3.9,-3.2 C 2.8,16.5 0.3,14.4 0.3,11 0.3,7 3.6,4 9.1,4 11.8,4 13.7,4.5 15,5.2 L 13.8,9.4 C 12.9,8.9 11.2,8.3 9,8.3 c -2.3,0 -3.4,1.1 -3.4,2.2 0,1.5 1.3,2.1 4.3,3.3 4.1,1.5 6,3.7 6,7 0,3.9 -3,7.2 -9.4,7.2 -2.7,0 -5.3,-0.7 -6.6,-1.4 l 1.2,-4.3 z"
                 id="S"
                 style="fill:#ffffff;fill-opacity:1" />
            </g>
          </g>
        </g>
      </g>
    </g>
  </g>
</svg>
